…
This is a basic example which shows you how to solve a common problem:

``` r
library(corona)

# Import the corona death numbers as a dataframe
read_deaths()
#> Parsed with column specification:
#> cols(
#>   .default = col_double(),
#>   `Province/State` = col_character(),
#>   `Country/Region` = col_character()
#> )
#> See spec(...) for full column specifications.
#> # A tibble: 31,062 x 6
#>    state country    Lat  Long date       value
#>    <chr> <chr>    <dbl> <dbl> <date>     <dbl>
#>  1 <NA>  Thailand    15   101 2020-01-22     0
#>  2 <NA>  Thailand    15   101 2020-01-23     0
#>  3 <NA>  Thailand    15   101 2020-01-24     0
#>  4 <NA>  Thailand    15   101 2020-01-25     0
#>  5 <NA>  Thailand    15   101 2020-01-26     0
#>  6 <NA>  Thailand    15   101 2020-01-27     0
#>  7 <NA>  Thailand    15   101 2020-01-28     0
#>  8 <NA>  Thailand    15   101 2020-01-29     0
#>  9 <NA>  Thailand    15   101 2020-01-30     0
#> 10 <NA>  Thailand    15   101 2020-01-31     0
#> # … with 31,052 more rows

# Import the corona infection numbers as a dataframe
read_infections()
#> Parsed with column specification:
#> cols(
#>   .default = col_double(),
#>   `Province/State` = col_character(),
#>   `Country/Region` = col_character()
#> )
#> See spec(...) for full column specifications.
#> # A tibble: 29,707 x 6
#>    state country    Lat  Long date       value
#>    <chr> <chr>    <dbl> <dbl> <date>     <dbl>
#>  1 <NA>  Thailand    15   101 2020-01-22     2
#>  2 <NA>  Thailand    15   101 2020-01-23     3
#>  3 <NA>  Thailand    15   101 2020-01-24     5
#>  4 <NA>  Thailand    15   101 2020-01-25     7
#>  5 <NA>  Thailand    15   101 2020-01-26     8
#>  6 <NA>  Thailand    15   101 2020-01-27     8
#>  7 <NA>  Thailand    15   101 2020-01-28    14
#>  8 <NA>  Thailand    15   101 2020-01-29    14
#>  9 <NA>  Thailand    15   101 2020-01-30    14
#> 10 <NA>  Thailand    15   101 2020-01-31    19
#> # … with 29,697 more rows
```
…
