Corona Data Import • corona
…
Import JHU corona data

To load the dataset, just call read_corona(). The function will fetch the latest data from the JHU github repository.

Opposed to the JHU github data, which is structured in a wide format (each day has a column and each row represents a country), this dataset is rearranged into a long format where each country and day reprents a row.

library(dplyr, warn.conflicts = FALSE)
library(corona)

# Import the corona
data <- read_corona()

data
#> # A tibble: 19,875 x 7
#>    country     date         Lat  Long infections deaths recoveries
#>    <chr>       <date>     <dbl> <dbl>      <dbl>  <dbl>      <dbl>
#>  1 Afghanistan 2020-01-22    33    65          0      0          0
#>  2 Afghanistan 2020-01-23    33    65          0      0          0
#>  3 Afghanistan 2020-01-24    33    65          0      0          0
#>  4 Afghanistan 2020-01-25    33    65          0      0          0
#>  5 Afghanistan 2020-01-26    33    65          0      0          0
#>  6 Afghanistan 2020-01-27    33    65          0      0          0
#>  7 Afghanistan 2020-01-28    33    65          0      0          0
#>  8 Afghanistan 2020-01-29    33    65          0      0          0
#>  9 Afghanistan 2020-01-30    33    65          0      0          0
#> 10 Afghanistan 2020-01-31    33    65          0      0          0
#> # â¦ with 19,865 more rows
…
Prepare the data

To work with the data, we have to preprocess the data

# Prepare data
data_germany <- data %>%
  preprocess_corona_data(statistic = "infections",
                         countries = "Germany",
                         n = 100)

Predict cases

# Predict the cases
data_germany %>% predict_growth()
#> # A tibble: 40 x 7
#> # Groups:   country [1]
#>    country   Lat  Long date       statistic   day predicted_cases
#>    <chr>   <dbl> <dbl> <date>         <dbl> <int>           <dbl>
#>  1 Germany    51     9 2020-03-01       130     1            257.
#>  2 Germany    51     9 2020-03-02       159     2            312.
#>  3 Germany    51     9 2020-03-03       196     3            380.
#>  4 Germany    51     9 2020-03-04       262     4            462.
#>  5 Germany    51     9 2020-03-05       482     5            562.
#>  6 Germany    51     9 2020-03-06       670     6            683.
#>  7 Germany    51     9 2020-03-07       799     7            831.
#>  8 Germany    51     9 2020-03-08      1040     8           1011.
#>  9 Germany    51     9 2020-03-09      1176     9           1230.
#> 10 Germany    51     9 2020-03-10      1457    10           1496.
#> # â¦ with 30 more rows
…
data %>%
  group_by(country, date) %>%
  summarise_at(c("infections", "deaths", "recoveries"), sum)
#> # A tibble: 13,725 x 5
#> # Groups:   country [183]
#>    country     date       infections deaths recoveries
#>    <chr>       <date>          <dbl>  <dbl>      <dbl>
#>  1 Afghanistan 2020-01-22          0      0          0
#>  2 Afghanistan 2020-01-23          0      0          0
#>  3 Afghanistan 2020-01-24          0      0          0
#>  4 Afghanistan 2020-01-25          0      0          0
#>  5 Afghanistan 2020-01-26          0      0          0
#>  6 Afghanistan 2020-01-27          0      0          0
#>  7 Afghanistan 2020-01-28          0      0          0
#>  8 Afghanistan 2020-01-29          0      0          0
#>  9 Afghanistan 2020-01-30          0      0          0
#> 10 Afghanistan 2020-01-31          0      0          0
#> # â¦ with 13,715 more rows
…
